Session 2: Web Scraping and Reading in Documents into R
…
The read_csv() command is from the readr package a part of the tidyverse. And the message it shows us is helpful – readr is essentially looking at the data and guessing its structure and type. This is helpful for us to know, as it will impact what sorts of operations we can do on these individual columns.

Let’s check what we have.

stortinget

## # A tibble: 1,000 x 8
##       X1 pos_date    valg    wc Navn                  Parti      Statement  year
##    <dbl> <date>     <dbl> <dbl> <chr>                 <chr>      <chr>     <dbl>
##  1     1 2000-09-28  1997    69 D a g s o r d e n     Regjering  "1. Inns~  2000
##  2     2 2000-09-28  1997     8 Presidenten           Stortinget "Represe~  2000
##  3     3 2000-09-28  1997    44 Rolf Reikvam          SV         "P\xe5 v~  2000
##  4     4 2000-09-28  1997    32 Presidenten           Stortinget "Ingen h~  2000
##  5     5 2000-09-28  1997    39 Presidenten           Stortinget "Ingen h~  2000
##  6     6 2000-09-28  1997    19 Presidenten           Stortinget "Represe~  2000
##  7     7 2000-09-28  1997    35 Hallgeir H. Langeland SV         "P\xe5 v~  2000
##  8     8 2000-09-28  1997     7 Presidenten           Stortinget "Represe~  2000
##  9     9 2000-09-28  1997    21 Karin Andersen        SV         "P\xe5 v~  2000
## 10    10 2000-09-28  1997     8 Presidenten           Stortinget "Represe~  2000
## # ... with 990 more rows
…
stortinget

## # A tibble: 1,000 x 8
##       X1 pos_date    valg    wc Navn                  Parti      Statement  year
##    <dbl> <date>     <dbl> <dbl> <chr>                 <chr>      <chr>     <dbl>
##  1     1 2000-09-28  1997    69 D a g s o r d e n     Regjering  1. Innst~  2000
##  2     2 2000-09-28  1997     8 Presidenten           Stortinget Represen~  2000
##  3     3 2000-09-28  1997    44 Rolf Reikvam          SV         På vegne~  2000
##  4     4 2000-09-28  1997    32 Presidenten           Stortinget Ingen ha~  2000
##  5     5 2000-09-28  1997    39 Presidenten           Stortinget Ingen ha~  2000
##  6     6 2000-09-28  1997    19 Presidenten           Stortinget Represen~  2000
##  7     7 2000-09-28  1997    35 Hallgeir H. Langeland SV         På vegne~  2000
##  8     8 2000-09-28  1997     7 Presidenten           Stortinget Represen~  2000
##  9     9 2000-09-28  1997    21 Karin Andersen        SV         På vegne~  2000
## 10    10 2000-09-28  1997     8 Presidenten           Stortinget Represen~  2000
## # ... with 990 more rows
…
