Session 3: Cleaning and manipulating text in R
…
library(tidyverse)
nobel <- read_csv("data/NobelPeace.csv", locale=locale(encoding = "latin1")) %>%
  select(!X1)

## Warning: Missing column names filled in: 'X1' [1]

sr <- read_csv("data/srps.csv")

2 Viewing your tibble corpus

So after the first two sessions we’re assuming we have our corpus in a tibble, with one column being the text of the documents and other columns of metadata – year and company for the Social Responsibility reports, laureate and year for our Nobel Peace Prize award speeches. First things first, there are numerous ways to try to get an overview of the data. If you just enter the dataframe’s name in R you will get the first few lines. Alternately, you can use print() – tibbles are build to make printing and viewing dataframes easier. If we want to print all rows (you have to be careful with this, if you have millions of rows this will probably crash R) we can do this.

nobel # note that this tells you the datatype of each column

## # A tibble: 92 x 3
##     Year Laureate                                                 AwardSpeech   
##    <dbl> <chr>                                                    <chr>         
##  1  1905 Bertha von Suttner                                       "  On behalf ~
##  2  1906 Theodore Roosevelt                                       "As the Nobel~
##  3  1907 Ernesto Teodoro Moneta, Louis Renault                    "Ernesto Teod~
##  4  1908 Klas Pontus Arnoldson, Fredrik Bajer                     "On behalf of~
##  5  1909 Auguste Beernaert, Paul Henri d'Estournelles de Constant "Auguste Beer~
##  6  1910 Permanent International Peace Bureau                     "Chairman of ~
##  7  1911 Tobias Asser, Alfred Fried                               "Tobias Micha~
##  8  1912 Elihu Root                                               "Elihu Root w~
##  9  1913 Henri La Fontaine                                        "Henri La Fon~
## 10  1922 Fridtjof Nansen                                          "I take pleas~
## # ... with 82 more rows
…
#OR

(nobel <- nobel %>%
  mutate(clean_text = str_replace_all(AwardSpeech, "\u0092", "'")) %>%
  mutate(clean_text = str_replace_all(clean_text, "(\u0093)|(\u0094)", '"')) %>%
  mutate(clean_text = str_to_lower(clean_text)) %>%
  mutate(clean_text = str_squish(clean_text)))

## # A tibble: 92 x 4
##     Year Laureate            AwardSpeech                clean_text              
##    <dbl> <chr>               <chr>                      <chr>                   
##  1  1905 Bertha von Suttner  "  On behalf of the Nobel~ "on behalf of the nobel~
##  2  1906 Theodore Roosevelt  "As the Nobel   Committee~ "as the nobel committee~
##  3  1907 Ernesto Teodoro Mo~ "Ernesto Teodoro Moneta w~ "ernesto teodoro moneta~
##  4  1908 Klas Pontus Arnold~ "On behalf of the Nobel C~ "on behalf of the nobel~
##  5  1909 Auguste Beernaert,~ "Auguste Beernaert was bo~ "auguste beernaert was ~
##  6  1910 Permanent Internat~ "Chairman of the Committe~ "chairman of the commit~
##  7  1911 Tobias Asser, Alfr~ "Tobias Michael Carel Ass~ "tobias michael carel a~
##  8  1912 Elihu Root          "Elihu Root was born on F~ "elihu root was born on~
##  9  1913 Henri La Fontaine   "Henri La Fontaine is the~ "henri la fontaine is t~
## 10  1922 Fridtjof Nansen     "I take pleasure in annou~ "i take pleasure in ann~
## # ... with 82 more rows
…
Look at other excess text in the Nobel corpus. How can we write code to cut these peices out?

Are the problems the same with the SR report corpus? Take a look and see if we can run the same code or we need to do different things to clean that corpus.

3 Manipulating dataframes

At this point there is actually a fair amount we can do with our corpus as a dataframe and text corpus in one column. To help us manipulate dataframes, let’s take a quick look at the tidyverse’s system of manipulation by common-sense verbs.

With nobel we have a dataframe of speeches from 1905 to 2019 (with some holes where there was no prize given out). How do we subset this dataframe so we have only speeches from 1950-1980? Use filter.

nobel %>%
  filter(Year >= 1950 & Year <= 1980)

## # A tibble: 26 x 3
##     Year Laureate                                                    AwardSpeech
##    <dbl> <chr>                                                       <chr>      
##  1  1950 Ralph Bunche                                                "dr. ralph~
##  2  1951 Léon Jouhaux                                                "alfred no~
##  3  1952 Albert Schweitzer                                           "albert sc~
##  4  1953 George C. Marshall                                          "when cade~
##  5  1954 Office of the United Nations High Commissioner for Refugees "the nobel~
##  6  1957 Lester Bowles Pearson                                       "the nobel~
##  7  1958 Georges Pire                                                "the nobel~
##  8  1959 Philip Noel-Baker                                           "frequentl~
##  9  1960 Albert Lutuli                                               "this year~
## 10  1961 Dag Hammarskjöld                                            "the nobel~
## # ... with 16 more rows

Here we’ve said to filter the corpus based on rows where Year is greater or equal to 1950 and less than or equal to 1980. & is the “and” operator, | is “or,” and ! is not.

nobel %>%
  filter(Year == 1950 | Year == 1980) # returns rows for 1950 and 1980
nobel %>%
  filter(Year >= 1950 & Year <= 1954 & Year != 1953) # returns rows >= 1950, <=1954 and not 1953

mutate adds new columns. Say we’d like a column telling us whether the year was before WWII or after.

nobel %>%
  mutate(after_WWII = Year > 1945)

## # A tibble: 92 x 4
##     Year Laureate                  AwardSpeech                        after_WWII
##    <dbl> <chr>                     <chr>                              <lgl>     
##  1  1905 Bertha von Suttner        "on behalf of the nobel committee~ FALSE     
##  2  1906 Theodore Roosevelt        "as the nobel committee meets tod~ FALSE     
##  3  1907 Ernesto Teodoro Moneta, ~ "ernesto teodoro moneta was born ~ FALSE     
##  4  1908 Klas Pontus Arnoldson, F~ "on behalf of the nobel committee~ FALSE     
##  5  1909 Auguste Beernaert, Paul ~ "auguste beernaert was born in 18~ FALSE     
##  6  1910 Permanent International ~ "chairman of the committee løvlan~ FALSE     
##  7  1911 Tobias Asser, Alfred Fri~ "tobias michael carel asser was b~ FALSE     
##  8  1912 Elihu Root                "elihu root was born on february ~ FALSE     
##  9  1913 Henri La Fontaine         "henri la fontaine is the true le~ FALSE     
## 10  1922 Fridtjof Nansen           "i take pleasure in announcing th~ FALSE     
## # ... with 82 more rows
…
