Session 4: Word frequencies and visualization
…
We’ve talked about tidy format – each variable a column, each observation a row, each type of observational unit a table. We’ve taken speeches at the Nobel prize and pages of oil company Sustainability Reports as our observations and can use this to do some transformations – do total word counts or specific word frequencies. But once we start really doing analysis at the level of the word, tidy rules would seem to dictate that we treat not individual texts but individual words as observations. Thus tidytext format is a table with one word per row.

It might help if we are more specific: we can use two signifiers for words - words and tokens. Words are unique, well, words as we conceive of them. Tokens are each individual instances of a word. So a sentence: “the brown fox jumped over the brown log” we will say has 8 tokens (number of total words) but 6 words (number of unique words, as “the” and “brown” appear twice).1 So tidy data format is one token per row.2

We convert character strings that we have been working with into tidy text with the unnest_rows() function in the tidytext package, which splits texts up by tokens (a process appropriately called “tokenization”).

# Lets use the first speach in our Nobel corpus as an example
library(tidytext)
library(tidyverse)
nobel <- read_rds("data/nobel_cleaned.Rds")
ex <- nobel[1,]
ex %>%
  unnest_tokens(output = words, input = AwardSpeech)

## # A tibble: 598 x 3
##     Year Laureate           words       
##    <dbl> <chr>              <chr>       
##  1  1905 Bertha von Suttner on          
##  2  1905 Bertha von Suttner behalf      
##  3  1905 Bertha von Suttner of          
##  4  1905 Bertha von Suttner the         
##  5  1905 Bertha von Suttner nobel       
##  6  1905 Bertha von Suttner committee   
##  7  1905 Bertha von Suttner bjørnstjerne
##  8  1905 Bertha von Suttner bjørnson    
##  9  1905 Bertha von Suttner introduced  
## 10  1905 Bertha von Suttner the         
## # ... with 588 more rows

We now end up with a dataframe where each row is an observation with words, year, and Nobel laureate as variables. Note also that tidytext does cleaning - whitespace stripping, to_lower and so on. We didn’t notice here as we’re using our dataframe that we have already cleaned. The first thing we might notice is the number of rows is the total word count.

2 Stop Words

Another way in which texts are frequently pre-processed for analysis and we can now look at is to remove so-called stop words. Stop words are words with grammatical rather than syntactic function - they make things we say grammatical but don’t add (much) meaning. Examples include “a,” “the,” “of” and so on. What counts as a stopword might vary on our corpus! And what sort of analysis we’re trying to do.3 All major text analysis packages have means for removing stop words. In ‘’tidytext’’ we have a list of stopwords called stop_words from a couple of different corpora (?stop_words for more info and links).

stop_words

## # A tibble: 1,149 x 2
##    word        lexicon
##    <chr>       <chr>  
##  1 a           SMART  
##  2 a's         SMART  
##  3 able        SMART  
##  4 about       SMART  
##  5 above       SMART  
##  6 according   SMART  
##  7 accordingly SMART  
##  8 across      SMART  
##  9 actually    SMART  
## 10 after       SMART  
## # ... with 1,139 more rows
…
To see it in action we’ll first test it against a short test set of words and then apply to our whole corpus.

library(SnowballC)
words_to_stem <- c("going", "represented", "wars", "similarity", "books")
SnowballC::wordStem(words_to_stem)

## [1] "go"      "repres"  "war"     "similar" "book"

Stemming in action. So now applied to the entire document:

(nobel_tidy_stemmed <- nobel_tidy %>%
  mutate(word_stem = wordStem(words)))

## # A tibble: 94,107 x 4
##     Year Laureate           words        word_stem  
##    <dbl> <chr>              <chr>        <chr>      
##  1  1905 Bertha von Suttner behalf       behalf     
##  2  1905 Bertha von Suttner nobel        nobel      
##  3  1905 Bertha von Suttner committee    committe   
##  4  1905 Bertha von Suttner bjørnstjerne bjørnstjern
##  5  1905 Bertha von Suttner bjørnson     bjørnson   
##  6  1905 Bertha von Suttner introduced   introduc   
##  7  1905 Bertha von Suttner speaker      speaker    
##  8  1905 Bertha von Suttner baroness     baro       
##  9  1905 Bertha von Suttner bertha       bertha     
## 10  1905 Bertha von Suttner von          von        
## # ... with 94,097 more rows

write_rds(nobel_tidy_stemmed, "data/nobel_stemmed.Rds")

4 Top word frequencies4

Now we can find the most frequently appearing words in the corpus.

nobel_tidy %>%
  count(words, sort=TRUE)

## # A tibble: 12,329 x 2
##    words             n
##    <chr>         <int>
##  1 peace          1595
##  2 war             927
##  3 world           847
##  4 prize           646
##  5 nations         642
##  6 nobel           597
##  7 international   530
##  8 people          513
##  9 time            441
## 10 human           440
## # ... with 12,319 more rows

Remember we got this nice and informative result only because we already removed the stopwords. OTherwise we would have been swamped with “the,” “and,” and so on.

Our knowledge of how to subset tibbles will now come in pretty handy. If we want to get the most frequent words, say, before 1945 we easily do this.

nobel_tidy %>%
  filter(Year < 1945) %>%
  count(words, sort=TRUE)

## # A tibble: 4,801 x 2
##    words             n
##    <chr>         <int>
##  1 peace           346
##  2 war             301
##  3 nations         193
##  4 international   157
##  5 league          145
##  6 world           110
##  7 time             81
##  8 american         72
##  9 prize            72
## 10 europe           69
## # ... with 4,791 more rows
…
Let’s see how we do this in R. First we’ll compute document frequency. In order to simplify results, lets use the same subsetting of our data into pre-1945 and post-1945 – this means we’re treating pre-WWII speeches as one single document and likewise post-1945 speeches. tidytext makes it pretty easy – simply unnest tokens and then count the tokens. Note that count enable counting within groups, which we passed to count telling it to do the counts within the groups denoted in column Period. This produces the same result as passing group_by(Period) in the previous line and eliminating Period from the count() call.

nobel <- read_rds("data/nobel_cleaned.Rds") %>%
  mutate(Period = ifelse(Year <= 1945, "Pre-WWII", "Post-WWII"))
nobel_words <- nobel %>%
  unnest_tokens(words, AwardSpeech) %>%
  count(words, Period, sort = TRUE)

We can then use bind_tf_idf() from tidytext. (Tidytext implements tf-idf using proportional, but not logged, tf – we’ll see some of these other versions in other packages). The function takes a first argument (other than the tidy dataframe) that is the word, a second that is the document, and third a column containing document-term counts).

tf_idf <- nobel_words %>%
  bind_tf_idf(words, Period, n)
tf_idf

## # A tibble: 17,036 x 6
##    words Period        n     tf   idf tf_idf
##    <chr> <chr>     <int>  <dbl> <dbl>  <dbl>
##  1 the   Post-WWII 13947 0.0742     0      0
##  2 of    Post-WWII  7281 0.0387     0      0
##  3 in    Post-WWII  5614 0.0299     0      0
##  4 to    Post-WWII  5591 0.0297     0      0
##  5 and   Post-WWII  5417 0.0288     0      0
##  6 a     Post-WWII  3712 0.0197     0      0
##  7 the   Pre-WWII   3526 0.0761     0      0
##  8 that  Post-WWII  2543 0.0135     0      0
##  9 is    Post-WWII  2329 0.0124     0      0
## 10 of    Pre-WWII   2191 0.0473     0      0
## # ... with 17,026 more rows

Here we see that tf-idf has zeroed out these extremely common and not very interesting terms, precisely what we’d hope an indicator like this would do. Lets see the highest tf-idf scores.

tf_idf %>% arrange(desc(tf_idf)) 

## # A tibble: 17,036 x 6
##    words    Period        n       tf   idf   tf_idf
##    <chr>    <chr>     <int>    <dbl> <dbl>    <dbl>
##  1 nuclear  Post-WWII   278 0.00148  0.693 0.00102 
##  2 saavedra Pre-WWII     22 0.000475 0.693 0.000329
##  3 locarno  Pre-WWII     20 0.000432 0.693 0.000299
##  4 angell   Pre-WWII     19 0.000410 0.693 0.000284
##  5 pan      Pre-WWII     19 0.000410 0.693 0.000284
##  6 ladies   Post-WWII    71 0.000378 0.693 0.000262
##  7 global   Post-WWII    60 0.000319 0.693 0.000221
##  8 non      Post-WWII    54 0.000287 0.693 0.000199
##  9 poverty  Post-WWII    52 0.000277 0.693 0.000192
## 10 persons  Post-WWII    51 0.000271 0.693 0.000188
## # ... with 17,026 more rows
…
