Session 5: POS and dictionary methods
…
This yields a nice dataframe with tokens in the first column and POS in the second column. The POS are not just “noun,” “verb” and so on but more finely differentiated. See here for a list of abbreviations. Using the same filter, group_by, etc methods we can now find lists of most frequently words by type of speech. There are, of course, other applications we might imagine when POS-tagging is used in conjunction with other topics discussed in the workshop.

You don’t really need to worry about what’s in there but that it takes a character string (preferably cleaned, as always, to limit the chance of unexpected errors). Note, too, that the function has the option of specifying a filter that will return a string of words of a certain POS.

2 Sentiment analysis

Another commonly done sort of analysis that we can easily incorporate into our tidy workflow is that of sentiment analysis. There are numerous ways computational linguists have developed to algorithmically determine the “sentiment” of a piece of text. We focus here on a simple (and fairly naive) method that works on the level of individual words and employs a sentiment dictionary, essentially a list of words and their associated sentiments. As we will see, these same dictionary methods can also be applied to any list or lists of words and thus give analysts a more flexible tool to track vocabulary across a corpus.

tidytext includes three dictionaries, each working slightly differently.2 Let’s take a look below.

library(tidytext)
# the first time you will need to say yes to download of the sentiment dictionary
get_sentiments("afinn")

## # A tibble: 2,477 x 2
##    word       value
##    <chr>      <dbl>
##  1 abandon       -2
##  2 abandoned     -2
##  3 abandons      -2
##  4 abducted      -2
##  5 abduction     -2
##  6 abductions    -2
##  7 abhor         -3
##  8 abhorred      -3
##  9 abhorrent     -3
## 10 abhors        -3
## # ... with 2,467 more rows
…
## 
##  -5  -4  -3  -2  -1   0   1   2   3   4   5 
##  16  43 264 966 309   1 208 448 172  45   5

summary(get_sentiments("afinn")$value) # summary statistics for the value column 

##    Min. 1st Qu.  Median    Mean 3rd Qu.    Max. 
## -5.0000 -2.0000 -2.0000 -0.5894  2.0000  5.0000

So we see the value of sentiments goes from -5 to 5. Calling the other two:

get_sentiments("bing")

## # A tibble: 6,786 x 2
##    word        sentiment
##    <chr>       <chr>    
##  1 2-faces     negative 
##  2 abnormal    negative 
##  3 abolish     negative 
##  4 abominable  negative 
##  5 abominably  negative 
##  6 abominate   negative 
##  7 abomination negative 
##  8 abort       negative 
##  9 aborted     negative 
## 10 aborts      negative 
## # ... with 6,776 more rows

get_sentiments("nrc")

## # A tibble: 13,875 x 2
##    word        sentiment
##    <chr>       <chr>    
##  1 abacus      trust    
##  2 abandon     fear     
##  3 abandon     negative 
##  4 abandon     sadness  
##  5 abandoned   anger    
##  6 abandoned   fear     
##  7 abandoned   negative 
##  8 abandoned   sadness  
##  9 abandonment anger    
## 10 abandonment fear     
## # ... with 13,865 more rows
…
Use our very informal oil dictionary and apply it to the Sustainability Reports. You might also scale by number of total words per corpus – are oil terms smaller proportion of sustainability reports than they were 10 years ago?

4 Mulitple word analysis

4.1 N-grams

In Google’s famous n-grams viewer, you can search not just for a single word but for phrases, sets of words “n” tokens long. Indeed, this is why it is called an “n”-gram, they are consecutive sequences of an arbitrary number of words. So far we’ve only been looking at individual words, so lets think about multi-word units.

True to form, the tidyverse will help out with this, allowing us to unnest_tokens() by the n-gram by telling R that our token of interest is now not the single word but an ngram of n length.

nobel %>%
  unnest_tokens(twogram, AwardSpeech, token = "ngrams", n = 2)

## # A tibble: 234,267 x 3
##     Year Laureate           twogram               
##    <dbl> <chr>              <chr>                 
##  1  1905 Bertha von Suttner on behalf             
##  2  1905 Bertha von Suttner behalf of             
##  3  1905 Bertha von Suttner of the                
##  4  1905 Bertha von Suttner the nobel             
##  5  1905 Bertha von Suttner nobel committee       
##  6  1905 Bertha von Suttner committee bjørnstjerne
##  7  1905 Bertha von Suttner bjørnstjerne bjørnson 
##  8  1905 Bertha von Suttner bjørnson introduced   
##  9  1905 Bertha von Suttner introduced the        
## 10  1905 Bertha von Suttner the speaker           
## # ... with 234,257 more rows

And we could then make a plot of the most frequently occurring 2-grams. The problem with this is that we’re going to be overrun with stopwords, but now that we have bigrams how to do take the individual stop words? We could search and remove with str_remove_all without unnesting words, we could unnest, take out the stop words, renest and then unnest by 2-grams, but we could also use a more tidy approach and separate() which is another handy command for manipulating tidyverse dataframes.

nobel %>%
  unnest_tokens(twogram, AwardSpeech, token = "ngrams", n = 2) %>%
  separate(twogram, into=c("word1", "word2"), sep = " ")  # here the call states what col to separate, into which columns, and where the separation should be made, here when there is a space between the words

## # A tibble: 234,267 x 4
##     Year Laureate           word1        word2       
##    <dbl> <chr>              <chr>        <chr>       
##  1  1905 Bertha von Suttner on           behalf      
##  2  1905 Bertha von Suttner behalf       of          
##  3  1905 Bertha von Suttner of           the         
##  4  1905 Bertha von Suttner the          nobel       
##  5  1905 Bertha von Suttner nobel        committee   
##  6  1905 Bertha von Suttner committee    bjørnstjerne
##  7  1905 Bertha von Suttner bjørnstjerne bjørnson    
##  8  1905 Bertha von Suttner bjørnson     introduced  
##  9  1905 Bertha von Suttner introduced   the         
## 10  1905 Bertha von Suttner the          speaker     
## # ... with 234,257 more rows
…
library(widyr)
nobel %>%
  unnest_tokens(word, AwardSpeech) %>%
  filter(!word %in% stop_words$word) %>%
  pairwise_count(word, Year, sort = TRUE)

## Warning: `distinct_()` was deprecated in dplyr 0.7.0.
## Please use `distinct()` instead.
## See vignette('programming') for more help

## Warning: `tbl_df()` was deprecated in dplyr 1.0.0.
## Please use `tibble::as_tibble()` instead.

## # A tibble: 22,374,876 x 3
##    item1 item2     n
##    <chr> <chr> <dbl>
##  1 time  peace    89
##  2 peace time     89
##  3 prize peace    86
##  4 peace prize    86
##  5 peace nobel    85
##  6 nobel peace    85
##  7 war   peace    85
##  8 world peace    85
##  9 peace war      85
## 10 peace world    85
## # ... with 22,374,866 more rows
…
