Session 6: Document similarity and co-occurrence
…
## <<DocumentTermMatrix (documents: 92, terms: 8363)>>
## Non-/sparse entries: 49822/719574
## Sparsity           : 94%
## Maximal term length: 26
## Weighting          : term frequency (tf)

Notice that what it prints out is not the matrix itself, or even the beginning of the matrix, but some summary information. We can call str on it to get a tiny idea of the structure but in general this is a more abstract class of data structure.

To get back our tibble structure we use tidy().

tidy(nobel_dtm)

## # A tibble: 49,822 x 3
##    document term   count
##    <chr>    <chr>  <dbl>
##  1 1981     refuge    91
##  2 1954     refuge    71
##  3 1925     refuge     3
##  4 1926     refuge     3
##  5 1971     refuge     4
##  6 1965     refuge     3
##  7 1946     refuge     1
##  8 1978     refuge     1
##  9 1959     refuge     2
## 10 1947     refuge     1
## # ... with 49,812 more rows
The same back and forth words for the dfm format, which is a document-term matrix structure used by the popular quanteda package. Quanteda offers a wealth of text analysis tools, models, statistics, and other functions. See their tutorial here.

The one exception to this is when we’d like to have document variables associated with the documents in our dataframes. Corpus and dfm structures from quanteda allow for document variables (an example of document variables for our Nobel corpus would be the laureate’s name. But we could associate any years variables with these documents and then use them in analysis – we’ll talk a little bit about this when we talk about structural topic models.)

If we want to retain document variables into dfms then we’ll need to “untidy” our data and convert into dfms via quanteda functions corpus() and dfm.

(nobel_df <- nobel_tidy %>%
   mutate(decade = Year %/% 10 * 10) %>%
  group_by(Year, Laureate, decade) %>% 
  summarize(AwardSpeech = str_c(words, collapse = " ")) %>%
  ungroup())

## `summarise()` has grouped output by 'Year', 'Laureate'. You can override using the `.groups` argument.

## # A tibble: 92 x 4
##     Year Laureate                                                 decade AwardSpeech
##    <dbl> <chr>                                                     <dbl> <chr>      
##  1  1905 Bertha von Suttner                                         1900 behalf nob~
##  2  1906 Theodore Roosevelt                                         1900 nobel comm~
##  3  1907 Ernesto Teodoro Moneta, Louis Renault                      1900 ernesto te~
##  4  1908 Klas Pontus Arnoldson, Fredrik Bajer                       1900 behalf nob~
##  5  1909 Auguste Beernaert, Paul Henri d'Estournelles de Constant   1900 august bee~
##  6  1910 Permanent International Peace Bureau                       1910 chairman c~
##  7  1911 Tobias Asser, Alfred Fried                                 1910 tobia mich~
##  8  1912 Elihu Root                                                 1910 elihu root~
##  9  1913 Henri La Fontaine                                          1910 henri la f~
## 10  1922 Fridtjof Nansen                                            1920 pleasur an~
## # ... with 82 more rows
…
