Session 7: Topic modeling
…
Let’s turn to the matrix of probabilities of topics over documents. To keep us on our toes topicmodels calls this not theta but gamma (\(\gamma\)).

topics_in_documents <- tidy(nobel_tm, matrix = "gamma")
topics_in_documents

## # A tibble: 1,380 x 3
##    document topic      gamma
##    <chr>    <int>      <dbl>
##  1 1981         1 0.00000605
##  2 2017         1 1.00      
##  3 1954         1 0.00000871
##  4 1925         1 0.00000659
##  5 1926         1 0.00000659
##  6 1968         1 0.00000735
##  7 2013         1 0.0000123 
##  8 1988         1 0.00442   
##  9 1953         1 0.00000541
## 10 2016         1 0.0000106 
## # ... with 1,370 more rows
…
(topics <- topics_in_documents %>%
  left_join(auto_topics, by=c("topic" = "old_topic")))

## # A tibble: 1,380 x 4
##    document topic      gamma new_topic          
##    <chr>    <int>      <dbl> <chr>              
##  1 1981         1 0.00000605 nuclear-weapon-peac
##  2 2017         1 1.00       nuclear-weapon-peac
##  3 1954         1 0.00000871 nuclear-weapon-peac
##  4 1925         1 0.00000659 nuclear-weapon-peac
##  5 1926         1 0.00000659 nuclear-weapon-peac
##  6 1968         1 0.00000735 nuclear-weapon-peac
##  7 2013         1 0.0000123  nuclear-weapon-peac
##  8 1988         1 0.00442    nuclear-weapon-peac
##  9 1953         1 0.00000541 nuclear-weapon-peac
## 10 2016         1 0.0000106  nuclear-weapon-peac
## # ... with 1,370 more rows
…
